EESchema Schematic File Version 2
LIBS:power
LIBS:device
LIBS:transistors
LIBS:conn
LIBS:linear
LIBS:regul
LIBS:74xx
LIBS:cmos4000
LIBS:adc-dac
LIBS:memory
LIBS:xilinx
LIBS:microcontrollers
LIBS:dsp
LIBS:microchip
LIBS:analog_switches
LIBS:motorola
LIBS:texas
LIBS:intel
LIBS:audio
LIBS:interface
LIBS:digital-audio
LIBS:philips
LIBS:display
LIBS:cypress
LIBS:siliconi
LIBS:opto
LIBS:atmel
LIBS:contrib
LIBS:valves
LIBS:imx233
LIBS:ddr1_16bit
LIBS:microsd
LIBS:usb_wifi
LIBS:eink-cache
EELAYER 25 0
EELAYER END
$Descr A3 16535 11693
encoding utf-8
Sheet 1 1
Title ""
Date ""
Rev ""
Comp ""
Comment1 ""
Comment2 ""
Comment3 ""
Comment4 ""
$EndDescr
$Comp
L IMX233 U?
U 1 1 55BE2742
P 5000 3650
F 0 "U?" H 5000 4050 60  0000 C CNN
F 1 "IMX233" H 5000 3650 118 0000 C CNB
F 2 "" H 5000 3650 60  0000 C CNN
F 3 "" H 5000 3650 60  0000 C CNN
	1    5000 3650
	1    0    0    -1  
$EndComp
$Comp
L DDR1_16BIT U?
U 1 1 55BE49D7
P 10050 2400
F 0 "U?" H 10100 2650 60  0000 C CNN
F 1 "DDR1_16BIT" H 10100 2400 60  0000 C CNN
F 2 "" H 10100 2400 60  0000 C CNN
F 3 "" H 10100 2400 60  0000 C CNN
	1    10050 2400
	1    0    0    -1  
$EndComp
Text Label 7600 1300 0    60   ~ 0
D0
Text Label 7600 1400 0    60   ~ 0
D1
Text Label 7600 1500 0    60   ~ 0
D2
Text Label 7600 1600 0    60   ~ 0
D3
Text Label 7600 1700 0    60   ~ 0
D4
Text Label 7600 1800 0    60   ~ 0
D5
Text Label 7600 1900 0    60   ~ 0
D6
Text Label 7600 2000 0    60   ~ 0
D7
Text Label 7600 2100 0    60   ~ 0
D8
Text Label 7600 2200 0    60   ~ 0
D9
Text Label 7600 2300 0    60   ~ 0
D10
Text Label 7600 2400 0    60   ~ 0
D11
Text Label 7600 2500 0    60   ~ 0
D12
Text Label 7600 2600 0    60   ~ 0
D13
Text Label 7600 2700 0    60   ~ 0
D14
Text Label 7600 2800 0    60   ~ 0
D15
Entry Wire Line
	7900 1300 8000 1200
Entry Wire Line
	7900 1400 8000 1300
Entry Wire Line
	7900 1500 8000 1400
Entry Wire Line
	7900 1600 8000 1500
Entry Wire Line
	7900 1700 8000 1600
Entry Wire Line
	7900 1800 8000 1700
Entry Wire Line
	7900 1900 8000 1800
Entry Wire Line
	7900 2000 8000 1900
Entry Wire Line
	7900 2100 8000 2000
Entry Wire Line
	7900 2200 8000 2100
Entry Wire Line
	7900 2300 8000 2200
Entry Wire Line
	7900 2400 8000 2300
Entry Wire Line
	7900 2500 8000 2400
Entry Wire Line
	7900 2600 8000 2500
Entry Wire Line
	7900 2700 8000 2600
Entry Wire Line
	7900 2800 8000 2700
Text Label 8750 1250 2    60   ~ 0
D0
Text Label 8750 1350 2    60   ~ 0
D1
Text Label 8750 1450 2    60   ~ 0
D2
Text Label 8750 1550 2    60   ~ 0
D3
Text Label 8750 1650 2    60   ~ 0
D4
Text Label 8750 1750 2    60   ~ 0
D5
Text Label 8750 1850 2    60   ~ 0
D6
Text Label 8750 1950 2    60   ~ 0
D7
Text Label 8750 2050 2    60   ~ 0
D8
Text Label 8750 2150 2    60   ~ 0
D9
Text Label 8750 2250 2    60   ~ 0
D10
Text Label 8750 2350 2    60   ~ 0
D11
Text Label 8750 2450 2    60   ~ 0
D12
Text Label 8750 2550 2    60   ~ 0
D13
Text Label 8750 2650 2    60   ~ 0
D14
Text Label 8750 2750 2    60   ~ 0
D15
Entry Wire Line
	8450 1250 8350 1150
Entry Wire Line
	8450 1350 8350 1250
Entry Wire Line
	8450 1450 8350 1350
Entry Wire Line
	8450 1550 8350 1450
Entry Wire Line
	8450 1650 8350 1550
Entry Wire Line
	8450 1750 8350 1650
Entry Wire Line
	8450 1850 8350 1750
Entry Wire Line
	8450 1950 8350 1850
Entry Wire Line
	8450 2050 8350 1950
Entry Wire Line
	8450 2150 8350 2050
Entry Wire Line
	8450 2250 8350 2150
Entry Wire Line
	8450 2350 8350 2250
Entry Wire Line
	8450 2450 8350 2350
Entry Wire Line
	8450 2550 8350 2450
Entry Wire Line
	8450 2650 8350 2550
Entry Wire Line
	8450 2750 8350 2650
Text Label 7600 3000 0    60   ~ 0
A0
Text Label 7600 3100 0    60   ~ 0
A1
Text Label 7600 3200 0    60   ~ 0
A2
Text Label 7600 3300 0    60   ~ 0
A3
Text Label 7600 3400 0    60   ~ 0
A4
Text Label 7600 3500 0    60   ~ 0
A5
Text Label 7600 3600 0    60   ~ 0
A6
Text Label 7600 3700 0    60   ~ 0
A7
Text Label 7600 3800 0    60   ~ 0
A8
Text Label 7600 3900 0    60   ~ 0
A9
Text Label 7600 4000 0    60   ~ 0
A10
Text Label 7600 4100 0    60   ~ 0
A11
Text Label 7600 4200 0    60   ~ 0
A12
Entry Wire Line
	7900 3000 8000 2900
Entry Wire Line
	7900 3100 8000 3000
Entry Wire Line
	7900 3200 8000 3100
Entry Wire Line
	7900 3300 8000 3200
Entry Wire Line
	7900 3400 8000 3300
Entry Wire Line
	7900 3500 8000 3400
Entry Wire Line
	7900 3600 8000 3500
Entry Wire Line
	7900 3700 8000 3600
Entry Wire Line
	7900 3800 8000 3700
Entry Wire Line
	7900 3900 8000 3800
Entry Wire Line
	7900 4000 8000 3900
Entry Wire Line
	7900 4100 8000 4000
Entry Wire Line
	7900 4200 8000 4100
Text Label 11350 1250 0    60   ~ 0
A0
Text Label 11350 1350 0    60   ~ 0
A1
Text Label 11350 1450 0    60   ~ 0
A2
Text Label 11350 1550 0    60   ~ 0
A3
Text Label 11350 1650 0    60   ~ 0
A4
Text Label 11350 1750 0    60   ~ 0
A5
Text Label 11350 1850 0    60   ~ 0
A6
Text Label 11350 1950 0    60   ~ 0
A7
Text Label 11350 2050 0    60   ~ 0
A8
Text Label 11350 2150 0    60   ~ 0
A9
Text Label 11350 2250 0    60   ~ 0
A10
Text Label 11350 2350 0    60   ~ 0
A11
Text Label 11350 2450 0    60   ~ 0
A12
Entry Wire Line
	11650 1250 11750 1150
Entry Wire Line
	11650 1350 11750 1250
Entry Wire Line
	11650 1450 11750 1350
Entry Wire Line
	11650 1550 11750 1450
Entry Wire Line
	11650 1650 11750 1550
Entry Wire Line
	11650 1750 11750 1650
Entry Wire Line
	11650 1850 11750 1750
Entry Wire Line
	11650 1950 11750 1850
Entry Wire Line
	11650 2050 11750 1950
Entry Wire Line
	11650 2150 11750 2050
Entry Wire Line
	11650 2250 11750 2150
Entry Wire Line
	11650 2350 11750 2250
Entry Wire Line
	11650 2450 11750 2350
Text Label 7500 4350 0    60   ~ 0
~RAM_CE
Entry Wire Line
	7900 4350 8000 4250
Text Label 7500 4500 0    60   ~ 0
DQM0
Text Label 7500 4600 0    60   ~ 0
DQM1
Text Label 7500 4700 0    60   ~ 0
DQS0
Text Label 7500 4800 0    60   ~ 0
DQS1
Text Label 7500 4900 0    60   ~ 0
RAM_CLK
Text Label 7500 5000 0    60   ~ 0
~RAM_CLK
Text Label 7500 5100 0    60   ~ 0
BA0
Text Label 7500 5200 0    60   ~ 0
BA1
Text Label 7500 5300 0    60   ~ 0
~RAS
Text Label 7500 5400 0    60   ~ 0
~CAS
Text Label 7500 5500 0    60   ~ 0
~RAM_WE
Text Label 7500 5600 0    60   ~ 0
RAM_CKE
Entry Wire Line
	7900 4500 8000 4400
Entry Wire Line
	7900 4600 8000 4500
Entry Wire Line
	7900 4700 8000 4600
Entry Wire Line
	7900 4800 8000 4700
Entry Wire Line
	7900 4900 8000 4800
Entry Wire Line
	7900 5000 8000 4900
Entry Wire Line
	7900 5100 8000 5000
Entry Wire Line
	7900 5200 8000 5100
Entry Wire Line
	7900 5300 8000 5200
Entry Wire Line
	7900 5400 8000 5300
Entry Wire Line
	7900 5500 8000 5400
Entry Wire Line
	7900 5600 8000 5500
Text Label 8600 2950 0    60   ~ 0
BA0
Text Label 8600 3050 0    60   ~ 0
BA1
Text Label 8600 3200 0    60   ~ 0
~RAM_CE
Text Label 8600 3300 0    60   ~ 0
~RAM_WE
Text Label 8600 3400 0    60   ~ 0
~CAS
Text Label 8600 3500 0    60   ~ 0
~RAS
Entry Wire Line
	8450 2950 8350 2850
Entry Wire Line
	8450 3050 8350 2950
Entry Wire Line
	8450 3200 8350 3100
Entry Wire Line
	8450 3300 8350 3200
Entry Wire Line
	8450 3400 8350 3300
Entry Wire Line
	8450 3500 8350 3400
Text Label 11200 2550 0    60   ~ 0
RAM_CLK
Text Label 11200 2650 0    60   ~ 0
~RAM_CLK
Text Label 11200 2750 0    60   ~ 0
RAM_CKE
Text Label 11200 2850 0    60   ~ 0
DQM1
Text Label 11200 2950 0    60   ~ 0
DQS1
Text Label 11200 3100 0    60   ~ 0
DQM0
Text Label 11200 3200 0    60   ~ 0
DQS0
Text Label 11200 3350 0    60   ~ 0
~RAM_CE
Entry Wire Line
	11650 2550 11750 2450
Entry Wire Line
	11650 2650 11750 2550
Entry Wire Line
	11650 2750 11750 2650
Entry Wire Line
	11650 2850 11750 2750
Entry Wire Line
	11650 2950 11750 2850
Entry Wire Line
	11650 3100 11750 3000
Entry Wire Line
	11650 3200 11750 3100
Entry Wire Line
	11650 3350 11750 3250
$Comp
L GND #PWR?
U 1 1 55BE581F
P 10850 4200
F 0 "#PWR?" H 10850 3950 50  0001 C CNN
F 1 "GND" H 10850 4050 50  0000 C CNN
F 2 "" H 10850 4200 60  0000 C CNN
F 3 "" H 10850 4200 60  0000 C CNN
	1    10850 4200
	1    0    0    -1  
$EndComp
$Comp
L +2V5 #PWR?
U 1 1 55BE59E2
P 9300 4200
F 0 "#PWR?" H 9300 4050 50  0001 C CNN
F 1 "+2V5" H 9300 4340 50  0000 C CNN
F 2 "" H 9300 4200 60  0000 C CNN
F 3 "" H 9300 4200 60  0000 C CNN
	1    9300 4200
	-1   0    0    1   
$EndComp
$Comp
L R R?
U 1 1 55BE5B99
P 11050 3800
F 0 "R?" V 11130 3800 50  0000 C CNN
F 1 "1k" V 11050 3800 50  0000 C CNN
F 2 "" V 10980 3800 30  0000 C CNN
F 3 "" H 11050 3800 30  0000 C CNN
	1    11050 3800
	1    0    0    -1  
$EndComp
$Comp
L C_Small C?
U 1 1 55BE5BD4
P 11250 3800
F 0 "C?" H 11260 3870 50  0000 L CNN
F 1 "100n" H 11260 3720 50  0000 L CNN
F 2 "" H 11250 3800 60  0000 C CNN
F 3 "" H 11250 3800 60  0000 C CNN
	1    11250 3800
	1    0    0    -1  
$EndComp
$Comp
L R R?
U 1 1 55BE5CC2
P 11550 3800
F 0 "R?" V 11630 3800 50  0000 C CNN
F 1 "1k" V 11550 3800 50  0000 C CNN
F 2 "" V 11480 3800 30  0000 C CNN
F 3 "" H 11550 3800 30  0000 C CNN
	1    11550 3800
	1    0    0    -1  
$EndComp
$Comp
L C_Small C?
U 1 1 55BE5CEA
P 11750 3800
F 0 "C?" H 11760 3870 50  0000 L CNN
F 1 "100n" H 11760 3720 50  0000 L CNN
F 2 "" H 11750 3800 60  0000 C CNN
F 3 "" H 11750 3800 60  0000 C CNN
	1    11750 3800
	1    0    0    -1  
$EndComp
$Comp
L +2V5 #PWR?
U 1 1 55BE5FEC
P 11750 4200
F 0 "#PWR?" H 11750 4050 50  0001 C CNN
F 1 "+2V5" H 11750 4340 50  0000 C CNN
F 2 "" H 11750 4200 60  0000 C CNN
F 3 "" H 11750 4200 60  0000 C CNN
	1    11750 4200
	-1   0    0    1   
$EndComp
$Comp
L GND #PWR?
U 1 1 55BE6009
P 11050 4200
F 0 "#PWR?" H 11050 3950 50  0001 C CNN
F 1 "GND" H 11050 4050 50  0000 C CNN
F 2 "" H 11050 4200 60  0000 C CNN
F 3 "" H 11050 4200 60  0000 C CNN
	1    11050 4200
	1    0    0    -1  
$EndComp
$Comp
L R R?
U 1 1 55BE624E
P 9050 3850
F 0 "R?" V 9130 3850 50  0000 C CNN
F 1 "120" V 9050 3850 50  0000 C CNN
F 2 "" V 8980 3850 30  0000 C CNN
F 3 "" H 9050 3850 30  0000 C CNN
	1    9050 3850
	1    0    0    -1  
$EndComp
Text Label 8850 3700 2    60   ~ 0
RAM_CLK
Text Label 8850 4000 2    60   ~ 0
~RAM_CLK
Entry Wire Line
	8450 3700 8350 3600
Entry Wire Line
	8450 4000 8350 3900
Text Notes 8500 4150 0    39   ~ 0
CLK termination\nClose to RAM
$Comp
L R R?
U 1 1 55BE68BE
P 6300 700
F 0 "R?" V 6380 700 50  0000 C CNN
F 1 "100k" V 6300 700 50  0000 C CNN
F 2 "" V 6230 700 30  0000 C CNN
F 3 "" H 6300 700 30  0000 C CNN
	1    6300 700 
	0    -1   -1   0   
$EndComp
$Comp
L GND #PWR?
U 1 1 55BE6916
P 6450 700
F 0 "#PWR?" H 6450 450 50  0001 C CNN
F 1 "GND" H 6450 550 50  0000 C CNN
F 2 "" H 6450 700 60  0000 C CNN
F 3 "" H 6450 700 60  0000 C CNN
	1    6450 700 
	0    -1   -1   0   
$EndComp
$Comp
L GND #PWR?
U 1 1 55BE6C35
P 6750 7100
F 0 "#PWR?" H 6750 6850 50  0001 C CNN
F 1 "GND" H 6750 6950 50  0000 C CNN
F 2 "" H 6750 7100 60  0000 C CNN
F 3 "" H 6750 7100 60  0000 C CNN
	1    6750 7100
	1    0    0    -1  
$EndComp
$Comp
L +1V2 #PWR?
U 1 1 55BE6EE2
P 5950 7100
F 0 "#PWR?" H 5950 6950 50  0001 C CNN
F 1 "+1V2" H 5950 7240 50  0000 C CNN
F 2 "" H 5950 7100 60  0000 C CNN
F 3 "" H 5950 7100 60  0000 C CNN
	1    5950 7100
	-1   0    0    1   
$EndComp
$Comp
L +3V3 #PWR?
U 1 1 55BE6FA1
P 5500 7100
F 0 "#PWR?" H 5500 6950 50  0001 C CNN
F 1 "+3V3" H 5500 7240 50  0000 C CNN
F 2 "" H 5500 7100 60  0000 C CNN
F 3 "" H 5500 7100 60  0000 C CNN
	1    5500 7100
	-1   0    0    1   
$EndComp
$Comp
L +2V5 #PWR?
U 1 1 55BE6FCF
P 5050 7100
F 0 "#PWR?" H 5050 6950 50  0001 C CNN
F 1 "+2V5" H 5050 7240 50  0000 C CNN
F 2 "" H 5050 7100 60  0000 C CNN
F 3 "" H 5050 7100 60  0000 C CNN
	1    5050 7100
	-1   0    0    1   
$EndComp
$Comp
L C_Small C?
U 1 1 55BE7273
P 3700 7400
F 0 "C?" V 3650 7500 50  0000 L CNN
F 1 "1uF" V 3650 7100 50  0000 L CNN
F 2 "" H 3700 7400 60  0000 C CNN
F 3 "" H 3700 7400 60  0000 C CNN
	1    3700 7400
	1    0    0    -1  
$EndComp
$Comp
L INDUCTOR L?
U 1 1 55BE733F
P 4550 7500
F 0 "L?" V 4500 7500 50  0000 C CNN
F 1 "SRN6028-150M" V 4650 7500 50  0000 C CNN
F 2 "" H 4550 7500 60  0000 C CNN
F 3 "" H 4550 7500 60  0000 C CNN
	1    4550 7500
	1    0    0    -1  
$EndComp
Text Notes 4800 7550 1    39   ~ 0
15uH
$Comp
L GND #PWR?
U 1 1 55BE7651
P 3700 7700
F 0 "#PWR?" H 3700 7450 50  0001 C CNN
F 1 "GND" H 3700 7550 50  0000 C CNN
F 2 "" H 3700 7700 60  0000 C CNN
F 3 "" H 3700 7700 60  0000 C CNN
	1    3700 7700
	1    0    0    -1  
$EndComp
$Comp
L +5V #PWR?
U 1 1 55BE7A4D
P 4300 7100
F 0 "#PWR?" H 4300 6950 50  0001 C CNN
F 1 "+5V" H 4300 7240 50  0000 C CNN
F 2 "" H 4300 7100 60  0000 C CNN
F 3 "" H 4300 7100 60  0000 C CNN
	1    4300 7100
	-1   0    0    1   
$EndComp
$Comp
L C_Small C?
U 1 1 55BE7E4D
P 3850 7400
F 0 "C?" V 3800 7500 50  0000 L CNN
F 1 "100nF" V 3800 7100 50  0000 L CNN
F 2 "" H 3850 7400 60  0000 C CNN
F 3 "" H 3850 7400 60  0000 C CNN
	1    3850 7400
	1    0    0    -1  
$EndComp
$Comp
L GND #PWR?
U 1 1 55BE7E7F
P 3850 7700
F 0 "#PWR?" H 3850 7450 50  0001 C CNN
F 1 "GND" H 3850 7550 50  0000 C CNN
F 2 "" H 3850 7700 60  0000 C CNN
F 3 "" H 3850 7700 60  0000 C CNN
	1    3850 7700
	1    0    0    -1  
$EndComp
$Comp
L C_Small C?
U 1 1 55BE82E3
P 4000 7400
F 0 "C?" V 3950 7500 50  0000 L CNN
F 1 "100nF" V 3950 7100 50  0000 L CNN
F 2 "" H 4000 7400 60  0000 C CNN
F 3 "" H 4000 7400 60  0000 C CNN
	1    4000 7400
	1    0    0    -1  
$EndComp
$Comp
L C_Small C?
U 1 1 55BE831A
P 4150 7400
F 0 "C?" V 4100 7500 50  0000 L CNN
F 1 "10uF" V 4100 7100 50  0000 L CNN
F 2 "" H 4150 7400 60  0000 C CNN
F 3 "" H 4150 7400 60  0000 C CNN
	1    4150 7400
	1    0    0    -1  
$EndComp
Wire Wire Line
	7450 1300 7900 1300
Wire Wire Line
	7450 1400 7900 1400
Wire Wire Line
	7450 1500 7900 1500
Wire Wire Line
	7450 1600 7900 1600
Wire Wire Line
	7450 1700 7900 1700
Wire Wire Line
	7450 1800 7900 1800
Wire Wire Line
	7450 1900 7900 1900
Wire Wire Line
	7450 2000 7900 2000
Wire Wire Line
	7450 2100 7900 2100
Wire Wire Line
	7450 2200 7900 2200
Wire Wire Line
	7450 2300 7900 2300
Wire Wire Line
	7450 2400 7900 2400
Wire Wire Line
	7450 2500 7900 2500
Wire Wire Line
	7450 2600 7900 2600
Wire Wire Line
	7450 2700 7900 2700
Wire Wire Line
	7450 2800 7900 2800
Wire Wire Line
	8900 1250 8450 1250
Wire Wire Line
	8900 1350 8450 1350
Wire Wire Line
	8900 1450 8450 1450
Wire Wire Line
	8900 1550 8450 1550
Wire Wire Line
	8900 1650 8450 1650
Wire Wire Line
	8900 1750 8450 1750
Wire Wire Line
	8900 1850 8450 1850
Wire Wire Line
	8900 1950 8450 1950
Wire Wire Line
	8900 2050 8450 2050
Wire Wire Line
	8900 2150 8450 2150
Wire Wire Line
	8900 2250 8450 2250
Wire Wire Line
	8900 2350 8450 2350
Wire Wire Line
	8900 2450 8450 2450
Wire Wire Line
	8900 2550 8450 2550
Wire Wire Line
	8900 2650 8450 2650
Wire Wire Line
	8900 2750 8450 2750
Wire Wire Line
	7450 3000 7900 3000
Wire Wire Line
	7450 3100 7900 3100
Wire Wire Line
	7450 3200 7900 3200
Wire Wire Line
	7450 3300 7900 3300
Wire Wire Line
	7450 3400 7900 3400
Wire Wire Line
	7450 3500 7900 3500
Wire Wire Line
	7450 3600 7900 3600
Wire Wire Line
	7450 3700 7900 3700
Wire Wire Line
	7450 3800 7900 3800
Wire Wire Line
	7450 3900 7900 3900
Wire Wire Line
	7450 4000 7900 4000
Wire Wire Line
	7450 4100 7900 4100
Wire Wire Line
	7450 4200 7900 4200
Wire Wire Line
	11200 1250 11650 1250
Wire Wire Line
	11200 1350 11650 1350
Wire Wire Line
	11200 1450 11650 1450
Wire Wire Line
	11200 1550 11650 1550
Wire Wire Line
	11200 1650 11650 1650
Wire Wire Line
	11200 1750 11650 1750
Wire Wire Line
	11200 1850 11650 1850
Wire Wire Line
	11200 1950 11650 1950
Wire Wire Line
	11200 2050 11650 2050
Wire Wire Line
	11200 2150 11650 2150
Wire Wire Line
	11200 2250 11650 2250
Wire Wire Line
	11200 2350 11650 2350
Wire Wire Line
	11200 2450 11650 2450
Wire Wire Line
	7450 4350 7900 4350
Wire Wire Line
	7450 4500 7900 4500
Wire Wire Line
	7450 4600 7900 4600
Wire Wire Line
	7450 4700 7900 4700
Wire Wire Line
	7450 4800 7900 4800
Wire Wire Line
	7450 4900 7900 4900
Wire Wire Line
	7450 5000 7900 5000
Wire Wire Line
	7450 5100 7900 5100
Wire Wire Line
	7450 5200 7900 5200
Wire Wire Line
	7450 5300 7900 5300
Wire Wire Line
	7450 5400 7900 5400
Wire Wire Line
	7450 5500 7900 5500
Wire Wire Line
	7450 5600 7900 5600
Wire Wire Line
	8900 2950 8450 2950
Wire Wire Line
	8900 3050 8450 3050
Wire Wire Line
	8900 3200 8450 3200
Wire Wire Line
	8900 3300 8450 3300
Wire Wire Line
	8900 3400 8450 3400
Wire Wire Line
	8900 3500 8450 3500
Wire Wire Line
	11200 2550 11650 2550
Wire Wire Line
	11200 2650 11650 2650
Wire Wire Line
	11200 2750 11650 2750
Wire Wire Line
	11200 2850 11650 2850
Wire Wire Line
	11200 2950 11650 2950
Wire Wire Line
	11200 3100 11650 3100
Wire Wire Line
	11200 3200 11650 3200
Wire Wire Line
	11200 3350 11650 3350
Wire Bus Line
	8000 1050 8000 5500
Wire Bus Line
	8000 1050 11750 1050
Wire Bus Line
	11750 1050 11750 3250
Wire Bus Line
	8350 1050 8350 3900
Wire Wire Line
	10850 4100 10850 4200
Wire Wire Line
	10150 4100 10850 4100
Connection ~ 10250 4100
Connection ~ 10350 4100
Connection ~ 10450 4100
Connection ~ 10550 4100
Connection ~ 10650 4100
Connection ~ 10750 4100
Connection ~ 10850 4100
Wire Wire Line
	9300 4200 9300 4100
Wire Wire Line
	9300 4100 10000 4100
Connection ~ 9300 4100
Connection ~ 9400 4100
Connection ~ 9500 4100
Connection ~ 9600 4100
Connection ~ 9700 4100
Connection ~ 9800 4100
Connection ~ 9900 4100
Wire Wire Line
	11050 3650 11750 3650
Wire Wire Line
	11750 3650 11750 3700
Wire Wire Line
	11250 3700 11250 3650
Connection ~ 11250 3650
Connection ~ 11550 3650
Wire Wire Line
	11200 3500 11400 3500
Wire Wire Line
	11400 3500 11400 3650
Connection ~ 11400 3650
Wire Wire Line
	11050 3950 11050 4200
Wire Wire Line
	11050 4100 11250 4100
Wire Wire Line
	11250 4100 11250 3900
Wire Wire Line
	11550 3950 11550 4100
Wire Wire Line
	11550 4100 11750 4100
Wire Wire Line
	11750 3900 11750 4200
Connection ~ 11050 4100
Connection ~ 11750 4100
Wire Wire Line
	8450 3700 9050 3700
Wire Wire Line
	8450 4000 9050 4000
Wire Wire Line
	6250 7100 6750 7100
Connection ~ 6350 7100
Connection ~ 6450 7100
Connection ~ 6550 7100
Connection ~ 6650 7100
Connection ~ 6750 7100
Wire Wire Line
	5800 7100 6050 7100
Connection ~ 5950 7100
Wire Wire Line
	5350 7100 5600 7100
Connection ~ 5500 7100
Wire Wire Line
	4800 7100 5150 7100
Connection ~ 5050 7100
Connection ~ 4950 7100
Wire Wire Line
	4450 7100 4450 7850
Wire Wire Line
	4450 7850 4550 7850
Wire Wire Line
	4550 7850 4550 7800
Wire Wire Line
	4550 7200 4550 7100
Wire Wire Line
	3700 7700 3700 7500
Wire Wire Line
	3700 7100 3700 7300
Wire Wire Line
	3850 7700 3850 7500
Wire Wire Line
	3850 7300 3850 7100
Wire Wire Line
	4000 7100 4100 7100
Wire Wire Line
	4000 7100 4000 7300
Wire Wire Line
	4000 7300 4150 7300
$Comp
L GND #PWR?
U 1 1 55BE85CD
P 4000 7700
F 0 "#PWR?" H 4000 7450 50  0001 C CNN
F 1 "GND" H 4000 7550 50  0000 C CNN
F 2 "" H 4000 7700 60  0000 C CNN
F 3 "" H 4000 7700 60  0000 C CNN
	1    4000 7700
	1    0    0    -1  
$EndComp
$Comp
L GND #PWR?
U 1 1 55BE85FF
P 4150 7700
F 0 "#PWR?" H 4150 7450 50  0001 C CNN
F 1 "GND" H 4150 7550 50  0000 C CNN
F 2 "" H 4150 7700 60  0000 C CNN
F 3 "" H 4150 7700 60  0000 C CNN
	1    4150 7700
	1    0    0    -1  
$EndComp
Connection ~ 4000 7100
Connection ~ 4000 7300
Wire Wire Line
	4000 7500 4000 7700
Wire Wire Line
	4150 7500 4150 7700
Wire Wire Line
	3350 7100 3200 7100
$Comp
L CONN_microSD U?
U 1 1 55BE2462
P 11500 5650
F 0 "U?" H 11500 5150 40  0000 C CNN
F 1 "CONN_microSD" H 11550 6200 30  0000 C CNN
F 2 "" H 11500 5650 60  0000 C CNN
F 3 "" H 11500 5650 60  0000 C CNN
	1    11500 5650
	1    0    0    -1  
$EndComp
Text GLabel 10300 5200 0    39   BiDi ~ 0
uSD_D3
Wire Wire Line
	10300 5200 11200 5200
Text GLabel 10300 5300 0    39   BiDi ~ 0
uSD_D2
Text GLabel 10300 5400 0    39   BiDi ~ 0
uSD_D1
Text GLabel 10300 5500 0    39   BiDi ~ 0
uSD_D0
Wire Wire Line
	10300 5500 11200 5500
Wire Wire Line
	10300 5400 11200 5400
Wire Wire Line
	10300 5300 11200 5300
Text GLabel 10300 5650 0    39   Input ~ 0
uSD_CLK
Wire Wire Line
	10300 5650 11200 5650
$Comp
L +3.3V #PWR?
U 1 1 55BE2E29
P 11000 5750
F 0 "#PWR?" H 11000 5600 50  0001 C CNN
F 1 "+3.3V" H 11000 5890 50  0000 C CNN
F 2 "" H 11000 5750 60  0000 C CNN
F 3 "" H 11000 5750 60  0000 C CNN
	1    11000 5750
	0    -1   -1   0   
$EndComp
$Comp
L GND #PWR?
U 1 1 55BE2E67
P 11200 5850
F 0 "#PWR?" H 11200 5600 50  0001 C CNN
F 1 "GND" H 11200 5700 50  0000 C CNN
F 2 "" H 11200 5850 60  0000 C CNN
F 3 "" H 11200 5850 60  0000 C CNN
	1    11200 5850
	0    1    1    0   
$EndComp
Wire Wire Line
	11000 5750 11200 5750
Text GLabel 10300 5950 0    39   Input ~ 0
uSD_CMD
Wire Wire Line
	10300 5950 11200 5950
$Comp
L GND #PWR?
U 1 1 55BE3227
P 11800 5950
F 0 "#PWR?" H 11800 5700 50  0001 C CNN
F 1 "GND" H 11800 5800 50  0000 C CNN
F 2 "" H 11800 5950 60  0000 C CNN
F 3 "" H 11800 5950 60  0000 C CNN
	1    11800 5950
	0    -1   -1   0   
$EndComp
NoConn ~ 11850 5600
$Comp
L R R?
U 1 1 55BE33C4
P 11150 5000
F 0 "R?" V 11230 5000 50  0000 C CNN
F 1 "47k" V 11150 5000 50  0000 C CNN
F 2 "" V 11080 5000 30  0000 C CNN
F 3 "" H 11150 5000 30  0000 C CNN
	1    11150 5000
	1    0    0    -1  
$EndComp
$Comp
L R R?
U 1 1 55BE34C7
P 11000 5000
F 0 "R?" V 11080 5000 50  0000 C CNN
F 1 "47k" V 11000 5000 50  0000 C CNN
F 2 "" V 10930 5000 30  0000 C CNN
F 3 "" H 11000 5000 30  0000 C CNN
	1    11000 5000
	1    0    0    -1  
$EndComp
$Comp
L R R?
U 1 1 55BE3506
P 10850 5000
F 0 "R?" V 10930 5000 50  0000 C CNN
F 1 "47k" V 10850 5000 50  0000 C CNN
F 2 "" V 10780 5000 30  0000 C CNN
F 3 "" H 10850 5000 30  0000 C CNN
	1    10850 5000
	1    0    0    -1  
$EndComp
$Comp
L R R?
U 1 1 55BE3548
P 10700 5000
F 0 "R?" V 10780 5000 50  0000 C CNN
F 1 "47k" V 10700 5000 50  0000 C CNN
F 2 "" V 10630 5000 30  0000 C CNN
F 3 "" H 10700 5000 30  0000 C CNN
	1    10700 5000
	1    0    0    -1  
$EndComp
$Comp
L R R?
U 1 1 55BE358C
P 10550 5000
F 0 "R?" V 10630 5000 50  0000 C CNN
F 1 "47k" V 10550 5000 50  0000 C CNN
F 2 "" V 10480 5000 30  0000 C CNN
F 3 "" H 10550 5000 30  0000 C CNN
	1    10550 5000
	1    0    0    -1  
$EndComp
$Comp
L R R?
U 1 1 55BE35D4
P 10400 5000
F 0 "R?" V 10480 5000 50  0000 C CNN
F 1 "47k" V 10400 5000 50  0000 C CNN
F 2 "" V 10330 5000 30  0000 C CNN
F 3 "" H 10400 5000 30  0000 C CNN
	1    10400 5000
	1    0    0    -1  
$EndComp
Wire Wire Line
	11150 5150 11150 5200
Connection ~ 11150 5200
Wire Wire Line
	11000 5150 11000 5300
Connection ~ 11000 5300
Wire Wire Line
	10850 5150 10850 5400
Connection ~ 10850 5400
Wire Wire Line
	10700 5150 10700 5500
Connection ~ 10700 5500
Wire Wire Line
	10550 5150 10550 5650
Connection ~ 10550 5650
Wire Wire Line
	10400 5150 10400 5950
Wire Wire Line
	10400 5950 10450 5950
Connection ~ 10450 5950
$Comp
L +3.3V #PWR?
U 1 1 55BE3C35
P 10400 4800
F 0 "#PWR?" H 10400 4650 50  0001 C CNN
F 1 "+3.3V" H 10400 4940 50  0000 C CNN
F 2 "" H 10400 4800 60  0000 C CNN
F 3 "" H 10400 4800 60  0000 C CNN
	1    10400 4800
	1    0    0    -1  
$EndComp
Wire Wire Line
	10400 4800 10400 4850
Wire Wire Line
	10400 4850 11150 4850
Connection ~ 11000 4850
Connection ~ 10850 4850
Connection ~ 10700 4850
Connection ~ 10550 4850
Connection ~ 10400 4850
Text GLabel 2550 5150 0    39   BiDi ~ 0
uSD_D3
Text GLabel 2550 5250 0    39   BiDi ~ 0
uSD_D2
Text GLabel 2550 5350 0    39   BiDi ~ 0
uSD_D1
Text GLabel 2550 5450 0    39   BiDi ~ 0
uSD_D0
Text GLabel 2550 5650 0    39   Output ~ 0
uSD_CLK
Text GLabel 2550 5550 0    39   Output ~ 0
uSD_CMD
NoConn ~ 2550 5050
$Comp
L USB_WIFI MOD?
U 1 1 55BE4943
P 8950 5500
F 0 "MOD?" H 8750 5250 39  0000 C CNN
F 1 "USB_WIFI" H 8800 5750 39  0000 C CNN
F 2 "" H 10000 5200 39  0000 C CNN
F 3 "" H 10000 5200 39  0000 C CNN
	1    8950 5500
	1    0    0    -1  
$EndComp
$Comp
L GND #PWR?
U 1 1 55BE49F6
P 8950 5900
F 0 "#PWR?" H 8950 5650 50  0001 C CNN
F 1 "GND" H 8950 5750 50  0000 C CNN
F 2 "" H 8950 5900 60  0000 C CNN
F 3 "" H 8950 5900 60  0000 C CNN
	1    8950 5900
	1    0    0    -1  
$EndComp
Wire Wire Line
	8950 5900 9100 5900
$Comp
L +3.3V #PWR?
U 1 1 55BE4B17
P 8950 5100
F 0 "#PWR?" H 8950 4950 50  0001 C CNN
F 1 "+3.3V" H 8950 5240 50  0000 C CNN
F 2 "" H 8950 5100 60  0000 C CNN
F 3 "" H 8950 5100 60  0000 C CNN
	1    8950 5100
	1    0    0    -1  
$EndComp
Connection ~ 8950 5900
$Comp
L CONN_01X02 P?
U 1 1 55BE4DB4
P 9600 5450
F 0 "P?" H 9600 5600 50  0000 C CNN
F 1 "WIFI_ANT" V 9700 5450 50  0000 C CNN
F 2 "" H 9600 5450 60  0000 C CNN
F 3 "" H 9600 5450 60  0000 C CNN
	1    9600 5450
	1    0    0    -1  
$EndComp
$Comp
L GND #PWR?
U 1 1 55BE4E17
P 9400 5500
F 0 "#PWR?" H 9400 5250 50  0001 C CNN
F 1 "GND" H 9400 5350 50  0000 C CNN
F 2 "" H 9400 5500 60  0000 C CNN
F 3 "" H 9400 5500 60  0000 C CNN
	1    9400 5500
	1    0    0    -1  
$EndComp
Wire Wire Line
	7450 5950 8500 5950
Wire Wire Line
	8500 5950 8500 5550
Wire Wire Line
	7450 5850 8400 5850
Wire Wire Line
	8400 5850 8400 5450
Wire Wire Line
	8400 5450 8500 5450
$Comp
L C_Small C?
U 1 1 55BE559C
P 3200 7400
F 0 "C?" V 3150 7500 50  0000 L CNN
F 1 "22uF" V 3150 7100 50  0000 L CNN
F 2 "" H 3200 7400 60  0000 C CNN
F 3 "" H 3200 7400 60  0000 C CNN
	1    3200 7400
	1    0    0    -1  
$EndComp
$Comp
L C_Small C?
U 1 1 55BE55F7
P 3050 7400
F 0 "C?" V 3000 7500 50  0000 L CNN
F 1 "22uF" V 3000 7100 50  0000 L CNN
F 2 "" H 3050 7400 60  0000 C CNN
F 3 "" H 3050 7400 60  0000 C CNN
	1    3050 7400
	1    0    0    -1  
$EndComp
$Comp
L C_Small C?
U 1 1 55BE5687
P 2900 7400
F 0 "C?" V 2850 7500 50  0000 L CNN
F 1 "22uF" V 2850 7100 50  0000 L CNN
F 2 "" H 2900 7400 60  0000 C CNN
F 3 "" H 2900 7400 60  0000 C CNN
	1    2900 7400
	1    0    0    -1  
$EndComp
$Comp
L GND #PWR?
U 1 1 55BE585E
P 2900 7700
F 0 "#PWR?" H 2900 7450 50  0001 C CNN
F 1 "GND" H 2900 7550 50  0000 C CNN
F 2 "" H 2900 7700 60  0000 C CNN
F 3 "" H 2900 7700 60  0000 C CNN
	1    2900 7700
	1    0    0    -1  
$EndComp
$Comp
L GND #PWR?
U 1 1 55BE58BB
P 3050 7700
F 0 "#PWR?" H 3050 7450 50  0001 C CNN
F 1 "GND" H 3050 7550 50  0000 C CNN
F 2 "" H 3050 7700 60  0000 C CNN
F 3 "" H 3050 7700 60  0000 C CNN
	1    3050 7700
	1    0    0    -1  
$EndComp
$Comp
L GND #PWR?
U 1 1 55BE5911
P 3200 7700
F 0 "#PWR?" H 3200 7450 50  0001 C CNN
F 1 "GND" H 3200 7550 50  0000 C CNN
F 2 "" H 3200 7700 60  0000 C CNN
F 3 "" H 3200 7700 60  0000 C CNN
	1    3200 7700
	1    0    0    -1  
$EndComp
Wire Wire Line
	2900 7500 2900 7700
Wire Wire Line
	3050 7700 3050 7500
Wire Wire Line
	3200 7700 3200 7500
Wire Wire Line
	2900 7300 3200 7300
Connection ~ 3050 7300
Connection ~ 3200 7100
$Comp
L C_Small C?
U 1 1 55BE618F
P 3500 7400
F 0 "C?" V 3450 7500 50  0000 L CNN
F 1 "22uF" V 3450 7100 50  0000 L CNN
F 2 "" H 3500 7400 60  0000 C CNN
F 3 "" H 3500 7400 60  0000 C CNN
	1    3500 7400
	1    0    0    -1  
$EndComp
Wire Wire Line
	3200 7300 3200 7100
Connection ~ 3200 7300
$Comp
L C_Small C?
U 1 1 55BE6317
P 3350 7400
F 0 "C?" V 3300 7500 50  0000 L CNN
F 1 "22uF" V 3300 7100 50  0000 L CNN
F 2 "" H 3350 7400 60  0000 C CNN
F 3 "" H 3350 7400 60  0000 C CNN
	1    3350 7400
	1    0    0    -1  
$EndComp
$Comp
L GND #PWR?
U 1 1 55BE6379
P 3350 7700
F 0 "#PWR?" H 3350 7450 50  0001 C CNN
F 1 "GND" H 3350 7550 50  0000 C CNN
F 2 "" H 3350 7700 60  0000 C CNN
F 3 "" H 3350 7700 60  0000 C CNN
	1    3350 7700
	1    0    0    -1  
$EndComp
$Comp
L GND #PWR?
U 1 1 55BE63D5
P 3500 7700
F 0 "#PWR?" H 3500 7450 50  0001 C CNN
F 1 "GND" H 3500 7550 50  0000 C CNN
F 2 "" H 3500 7700 60  0000 C CNN
F 3 "" H 3500 7700 60  0000 C CNN
	1    3500 7700
	1    0    0    -1  
$EndComp
Wire Wire Line
	3500 7700 3500 7500
Wire Wire Line
	3350 7500 3350 7700
Wire Wire Line
	3350 7300 3500 7300
Wire Wire Line
	3500 7300 3500 7100
Connection ~ 3500 7300
NoConn ~ 4450 900 
NoConn ~ 4550 900 
NoConn ~ 4650 900 
NoConn ~ 4850 900 
NoConn ~ 4950 900 
NoConn ~ 5150 900 
NoConn ~ 5350 900 
NoConn ~ 5550 900 
NoConn ~ 5650 900 
NoConn ~ 5900 900 
$Comp
L R R?
U 1 1 55BE7820
P 2250 1300
F 0 "R?" V 2200 1450 50  0000 C CNN
F 1 "47k" V 2250 1300 50  0000 C CNN
F 2 "" V 2180 1300 30  0000 C CNN
F 3 "" H 2250 1300 30  0000 C CNN
	1    2250 1300
	0    1    1    0   
$EndComp
$Comp
L R R?
U 1 1 55BE794A
P 2250 1400
F 0 "R?" V 2200 1550 50  0000 C CNN
F 1 "47k" V 2250 1400 50  0000 C CNN
F 2 "" V 2180 1400 30  0000 C CNN
F 3 "" H 2250 1400 30  0000 C CNN
	1    2250 1400
	0    1    1    0   
$EndComp
$Comp
L R R?
U 1 1 55BE7AB4
P 2250 1500
F 0 "R?" V 2200 1650 50  0000 C CNN
F 1 "47k" V 2250 1500 50  0000 C CNN
F 2 "" V 2180 1500 30  0000 C CNN
F 3 "" H 2250 1500 30  0000 C CNN
	1    2250 1500
	0    1    1    0   
$EndComp
$Comp
L R R?
U 1 1 55BE7ABA
P 2250 1600
F 0 "R?" V 2200 1750 50  0000 C CNN
F 1 "47k" V 2250 1600 50  0000 C CNN
F 2 "" V 2180 1600 30  0000 C CNN
F 3 "" H 2250 1600 30  0000 C CNN
	1    2250 1600
	0    1    1    0   
$EndComp
$Comp
L R R?
U 1 1 55BE7AFE
P 2250 1700
F 0 "R?" V 2200 1850 50  0000 C CNN
F 1 "47k" V 2250 1700 50  0000 C CNN
F 2 "" V 2180 1700 30  0000 C CNN
F 3 "" H 2250 1700 30  0000 C CNN
	1    2250 1700
	0    1    1    0   
$EndComp
Wire Wire Line
	2100 1400 2000 1400
Wire Wire Line
	2000 1400 2000 1700
Wire Wire Line
	2000 1700 2100 1700
Wire Wire Line
	2100 1500 2000 1500
Connection ~ 2000 1500
Wire Wire Line
	2100 1600 2050 1600
Wire Wire Line
	2050 1600 2050 1300
Wire Wire Line
	2000 1300 2100 1300
$Comp
L GND #PWR?
U 1 1 55BE7E63
P 2000 1700
F 0 "#PWR?" H 2000 1450 50  0001 C CNN
F 1 "GND" H 2000 1550 50  0000 C CNN
F 2 "" H 2000 1700 60  0000 C CNN
F 3 "" H 2000 1700 60  0000 C CNN
	1    2000 1700
	0    1    1    0   
$EndComp
$Comp
L +3.3V #PWR?
U 1 1 55BE7ED7
P 2000 1300
F 0 "#PWR?" H 2000 1150 50  0001 C CNN
F 1 "+3.3V" H 2000 1440 50  0000 C CNN
F 2 "" H 2000 1300 60  0000 C CNN
F 3 "" H 2000 1300 60  0000 C CNN
	1    2000 1300
	0    -1   -1   0   
$EndComp
Connection ~ 2050 1300
Wire Wire Line
	2550 1300 2400 1300
Wire Wire Line
	2550 1400 2400 1400
Wire Wire Line
	2400 1500 2550 1500
Wire Wire Line
	2550 1600 2400 1600
Wire Wire Line
	2400 1700 2400 1800
Wire Wire Line
	2400 1800 2550 1800
NoConn ~ 2550 1700
Text Notes 2050 1200 0    39   ~ 0
Boot from uSD
$Comp
L Crystal_Small Y?
U 1 1 55BE903E
P 4150 700
F 0 "Y?" H 4150 800 50  0000 C CNN
F 1 "24MHz" H 4150 600 50  0000 C CNN
F 2 "" H 4150 700 60  0000 C CNN
F 3 "" H 4150 700 60  0000 C CNN
	1    4150 700 
	-1   0    0    1   
$EndComp
Wire Wire Line
	6150 700  6150 900 
$Comp
L C_Small C?
U 1 1 55BE96F7
P 4450 700
F 0 "C?" H 4460 770 50  0000 L CNN
F 1 "10pF" H 4460 620 50  0000 L CNN
F 2 "" H 4450 700 60  0000 C CNN
F 3 "" H 4450 700 60  0000 C CNN
	1    4450 700 
	0    -1   -1   0   
$EndComp
$Comp
L C_Small C?
U 1 1 55BE9812
P 3850 700
F 0 "C?" H 3860 770 50  0000 L CNN
F 1 "10pF" H 3860 620 50  0000 L CNN
F 2 "" H 3850 700 60  0000 C CNN
F 3 "" H 3850 700 60  0000 C CNN
	1    3850 700 
	0    1    -1   0   
$EndComp
Wire Wire Line
	3950 700  4050 700 
Wire Wire Line
	4100 900  4000 900 
Wire Wire Line
	4000 900  4000 700 
Connection ~ 4000 700 
Wire Wire Line
	4250 700  4350 700 
Wire Wire Line
	4200 900  4300 900 
Wire Wire Line
	4300 900  4300 700 
Connection ~ 4300 700 
$Comp
L GND #PWR?
U 1 1 55BE9CB4
P 4550 700
F 0 "#PWR?" H 4550 450 50  0001 C CNN
F 1 "GND" H 4550 550 50  0000 C CNN
F 2 "" H 4550 700 60  0000 C CNN
F 3 "" H 4550 700 60  0000 C CNN
	1    4550 700 
	0    -1   -1   0   
$EndComp
$Comp
L GND #PWR?
U 1 1 55BE9D2F
P 3750 700
F 0 "#PWR?" H 3750 450 50  0001 C CNN
F 1 "GND" H 3750 550 50  0000 C CNN
F 2 "" H 3750 700 60  0000 C CNN
F 3 "" H 3750 700 60  0000 C CNN
	1    3750 700 
	0    1    1    0   
$EndComp
$EndSCHEMATC
